<?xml version="1.0" encoding="UTF-8" standalone="no"?>
<graphml xmlns="http://graphml.graphdrawing.org/xmlns" xmlns:java="http://www.yworks.com/xml/yfiles-common/1.0/java" xmlns:sys="http://www.yworks.com/xml/yfiles-common/markup/primitives/2.0" xmlns:x="http://www.yworks.com/xml/yfiles-common/markup/2.0" xmlns:xsi="http://www.w3.org/2001/XMLSchema-instance" xmlns:y="http://www.yworks.com/xml/graphml" xmlns:yed="http://www.yworks.com/xml/yed/3" xsi:schemaLocation="http://graphml.graphdrawing.org/xmlns http://www.yworks.com/xml/schema/graphml/1.1/ygraphml.xsd">
  <!--Created by yEd 3.23.1-->
  <key for="port" id="d0" yfiles.type="portgraphics"/>
  <key for="port" id="d1" yfiles.type="portgeometry"/>
  <key for="port" id="d2" yfiles.type="portuserdata"/>
  <key attr.name="yed.palette.node.name" attr.type="string" for="node" id="d3"/>
  <key attr.name="Palette ToolTip" attr.type="string" for="node" id="d4"/>
  <key attr.name="url" attr.type="string" for="node" id="d5"/>
  <key attr.name="description" attr.type="string" for="node" id="d6"/>
  <key for="node" id="d7" yfiles.type="nodegraphics"/>
  <key for="graphml" id="d8" yfiles.type="resources"/>
  <key attr.name="yed.palette.edge.name" attr.type="string" for="edge" id="d9"/>
  <key attr.name="Palette ToolTip" attr.type="string" for="edge" id="d10"/>
  <key attr.name="url" attr.type="string" for="edge" id="d11"/>
  <key attr.name="description" attr.type="string" for="edge" id="d12"/>
  <key for="edge" id="d13" yfiles.type="edgegraphics"/>
  <graph edgedefault="directed" id="G">
    <node id="n0">
      <data key="d4"/>
      <data key="d6"/>
      <data key="d7">
        <y:ShapeNode>
          <y:Geometry height="20.0" width="20.0" x="0.0" y="30.0"/>
          <y:Fill color="#C0C0C07F" transparent="false"/>
          <y:BorderStyle color="#000000" type="line" width="2.0"/>
          <y:NodeLabel alignment="center" autoSizePolicy="content" fontFamily="Dialog" fontSize="12" fontStyle="plain" hasBackgroundColor="false" hasLineColor="false" hasText="false" height="4.0" horizontalTextPosition="center" iconTextGap="4" modelName="internal" modelPosition="c" textColor="#000000" verticalTextPosition="bottom" visible="true" width="4.0" x="8.0" y="8.0"/>
          <y:Shape type="ellipse"/>
        </y:ShapeNode>
      </data>
    </node>
    <node id="n1">
      <data key="d4"/>
      <data key="d6"/>
      <data key="d7">
        <y:ShapeNode>
          <y:Geometry height="20.0" width="20.0" x="100.0" y="30.0"/>
          <y:Fill color="#C0C0C07F" transparent="false"/>
          <y:BorderStyle color="#000000" type="line" width="2.0"/>
          <y:NodeLabel alignment="center" autoSizePolicy="content" fontFamily="Dialog" fontSize="12" fontStyle="plain" hasBackgroundColor="false" hasLineColor="false" hasText="false" height="4.0" horizontalTextPosition="center" iconTextGap="4" modelName="internal" modelPosition="c" textColor="#000000" verticalTextPosition="bottom" visible="true" width="4.0" x="8.0" y="8.0"/>
          <y:Shape type="ellipse"/>
        </y:ShapeNode>
      </data>
    </node>
    <node id="n2">
      <data key="d4"/>
      <data key="d6"/>
      <data key="d7">
        <y:ShapeNode>
          <y:Geometry height="20.0" width="20.0" x="150.0" y="30.0"/>
          <y:Fill color="#C0C0C07F" transparent="false"/>
          <y:BorderStyle color="#000000" type="line" width="2.0"/>
          <y:NodeLabel alignment="center" autoSizePolicy="content" fontFamily="Dialog" fontSize="12" fontStyle="plain" hasBackgroundColor="false" hasLineColor="false" hasText="false" height="4.0" horizontalTextPosition="center" iconTextGap="4" modelName="internal" modelPosition="c" textColor="#000000" verticalTextPosition="bottom" visible="true" width="4.0" x="8.0" y="8.0"/>
          <y:Shape type="ellipse"/>
        </y:ShapeNode>
      </data>
    </node>
    <node id="n3">
      <data key="d4"/>
      <data key="d6"/>
      <data key="d7">
        <y:ShapeNode>
          <y:Geometry height="20.0" width="20.0" x="250.0" y="30.0"/>
          <y:Fill color="#C0C0C07F" transparent="false"/>
          <y:BorderStyle color="#000000" type="line" width="2.0"/>
          <y:NodeLabel alignment="center" autoSizePolicy="content" fontFamily="Dialog" fontSize="12" fontStyle="plain" hasBackgroundColor="false" hasLineColor="false" hasText="false" height="4.0" horizontalTextPosition="center" iconTextGap="4" modelName="internal" modelPosition="c" textColor="#000000" verticalTextPosition="bottom" visible="true" width="4.0" x="8.0" y="8.0"/>
          <y:Shape type="ellipse"/>
        </y:ShapeNode>
      </data>
    </node>
    <node id="n4">
      <data key="d4"/>
      <data key="d6"/>
      <data key="d7">
        <y:ShapeNode>
          <y:Geometry height="20.0" width="20.0" x="300.0" y="30.0"/>
          <y:Fill color="#C0C0C07F" transparent="false"/>
          <y:BorderStyle color="#000000" type="line" width="2.0"/>
          <y:NodeLabel alignment="center" autoSizePolicy="content" fontFamily="Dialog" fontSize="12" fontStyle="plain" hasBackgroundColor="false" hasLineColor="false" hasText="false" height="4.0" horizontalTextPosition="center" iconTextGap="4" modelName="internal" modelPosition="c" textColor="#000000" verticalTextPosition="bottom" visible="true" width="4.0" x="8.0" y="8.0"/>
          <y:Shape type="ellipse"/>
        </y:ShapeNode>
      </data>
    </node>
    <node id="n5">
      <data key="d4"/>
      <data key="d6"/>
      <data key="d7">
        <y:ShapeNode>
          <y:Geometry height="20.0" width="20.0" x="400.0" y="30.0"/>
          <y:Fill color="#C0C0C07F" transparent="false"/>
          <y:BorderStyle color="#000000" type="line" width="2.0"/>
          <y:NodeLabel alignment="center" autoSizePolicy="content" fontFamily="Dialog" fontSize="12" fontStyle="plain" hasBackgroundColor="false" hasLineColor="false" hasText="false" height="4.0" horizontalTextPosition="center" iconTextGap="4" modelName="internal" modelPosition="c" textColor="#000000" verticalTextPosition="bottom" visible="true" width="4.0" x="8.0" y="8.0"/>
          <y:Shape type="ellipse"/>
        </y:ShapeNode>
      </data>
    </node>
    <edge id="e0" source="n0" target="n1">
      <data key="d9" xml:space="preserve"><![CDATA[4d14a0ae-4bee-4168-a135-db4e875a07a9]]></data>
      <data key="d10" xml:space="preserve"/>
      <data key="d11" xml:space="preserve"><![CDATA[MMM-U-relate]]></data>
      <data key="d13">
        <y:PolyLineEdge>
          <y:Path sx="0.0" sy="0.0" tx="0.0" ty="0.0"/>
          <y:LineStyle cap="2" color="#999999" dashPhase="0.0" join="0" miterLimit="10.0" type="custom" width="3.0"/>
          <y:Arrows source="none" target="none"/>
          <y:EdgeLabel alignment="left" configuration="AutoFlippingLabel" distance="2.0" fontFamily="Dialog" fontSize="12" fontStyle="plain" hasBackgroundColor="false" hasLineColor="false" height="17.96875" horizontalTextPosition="center" iconTextGap="4" modelName="custom" preferredPlacement="anywhere" ratio="0.5" textColor="#999999" verticalTextPosition="bottom" visible="true" width="39.091796875" x="20.4541015625" xml:space="preserve" y="-19.968750000000007">relate<y:LabelModel><y:RotatedDiscreteEdgeLabelModel angle="0.0" autoRotationEnabled="true" candidateMask="18" distance="2.0" positionRelativeToSegment="false"/></y:LabelModel><y:ModelParameter><y:RotatedDiscreteEdgeLabelModelParameter position="head"/></y:ModelParameter><y:PreferredPlacementDescriptor angle="0.0" angleOffsetOnRightSide="0" angleReference="absolute" angleRotationOnRightSide="co" distance="-1.0" frozen="true" placement="anywhere" side="anywhere" sideReference="relative_to_edge_flow"/></y:EdgeLabel>
          <y:BendStyle smoothed="true"/>
        </y:PolyLineEdge>
      </data>
    </edge>
    <edge id="e1" source="n2" target="n3">
      <data key="d9" xml:space="preserve"><![CDATA[47d79867-bf65-4c2f-b6a5-05e88956be09]]></data>
      <data key="d10" xml:space="preserve"/>
      <data key="d11" xml:space="preserve"><![CDATA[MMM-B-equates]]></data>
      <data key="d13">
        <y:PolyLineEdge>
          <y:Path sx="0.0" sy="0.0" tx="0.0" ty="0.0"/>
          <y:LineStyle cap="2" color="#A1CAF1" dashPhase="0.0" join="0" miterLimit="10.0" type="custom" width="3.0"/>
          <y:Arrows source="delta" target="delta"/>
          <y:EdgeLabel alignment="left" configuration="AutoFlippingLabel" distance="2.0" fontFamily="Dialog" fontSize="12" fontStyle="plain" hasBackgroundColor="false" hasLineColor="false" height="17.96875" horizontalTextPosition="center" iconTextGap="4" modelName="custom" preferredPlacement="anywhere" ratio="0.5" textColor="#A1CAF1" verticalTextPosition="bottom" visible="true" width="52.298828125" x="13.8505859375" xml:space="preserve" y="-19.968750000000007">equates<y:LabelModel><y:RotatedDiscreteEdgeLabelModel angle="0.0" autoRotationEnabled="true" candidateMask="18" distance="2.0" positionRelativeToSegment="false"/></y:LabelModel><y:ModelParameter><y:RotatedDiscreteEdgeLabelModelParameter position="head"/></y:ModelParameter><y:PreferredPlacementDescriptor angle="0.0" angleOffsetOnRightSide="0" angleReference="absolute" angleRotationOnRightSide="co" distance="-1.0" frozen="true" placement="anywhere" side="anywhere" sideReference="relative_to_edge_flow"/></y:EdgeLabel>
          <y:BendStyle smoothed="true"/>
        </y:PolyLineEdge>
      </data>
    </edge>
    <edge id="e2" source="n4" target="n5">
      <data key="d9" xml:space="preserve"><![CDATA[ee6bd564-78dc-42d0-82ab-22d427b9123c]]></data>
      <data key="d10" xml:space="preserve"/>
      <data key="d11" xml:space="preserve"><![CDATA[MMM-B-differsFrom]]></data>
      <data key="d13">
        <y:PolyLineEdge>
          <y:Path sx="0.0" sy="0.0" tx="0.0" ty="0.0"/>
          <y:LineStyle cap="2" color="#CC0000" dashPhase="0.0" join="0" miterLimit="10.0" type="custom" width="3.0"/>
          <y:Arrows source="dash" target="dash"/>
          <y:EdgeLabel alignment="left" configuration="AutoFlippingLabel" distance="2.0" fontFamily="Dialog" fontSize="12" fontStyle="plain" hasBackgroundColor="false" hasLineColor="false" height="17.96875" horizontalTextPosition="center" iconTextGap="4" modelName="custom" preferredPlacement="anywhere" ratio="0.5" textColor="#CC0000" verticalTextPosition="bottom" visible="true" width="72.8359375" x="3.58203125" xml:space="preserve" y="-19.968750000000036">differsFrom<y:LabelModel><y:RotatedDiscreteEdgeLabelModel angle="0.0" autoRotationEnabled="true" candidateMask="18" distance="2.0" positionRelativeToSegment="false"/></y:LabelModel><y:ModelParameter><y:RotatedDiscreteEdgeLabelModelParameter position="head"/></y:ModelParameter><y:PreferredPlacementDescriptor angle="0.0" angleOffsetOnRightSide="0" angleReference="absolute" angleRotationOnRightSide="co" distance="-1.0" frozen="true" placement="anywhere" side="anywhere" sideReference="relative_to_edge_flow"/></y:EdgeLabel>
          <y:BendStyle smoothed="true"/>
        </y:PolyLineEdge>
      </data>
    </edge>
  </graph>
  <data key="d8">
    <y:Resources/>
  </data>
</graphml>
